{
  "roles": ["Administrator", "Anonymous"],
  "defaultRoles": [],
  "auth": {
    "audience": "KW5NFZK6",
    "issuer": "admin",
    "refreshExpiresIn": 10080,
    "accessExpiresIn": 15,
    "jwtAlgorithm": "RS256"
  },
  "socialLogins": {
    "twitterConsumerKey": "",
    "twitterConsumerSecret": "",
    "googleClientId": "",
    "googleClientSecret": "",
    "facebookAppId": "",
    "facebookAppSecret": "",
    "appleTeamId": "",
    "appleClientId": "",
    "appleKeyId": "",
    "appleCallbacks": ["http://localhost:8080/apple-signin/"]
  }
}
